<?xml version="1.0" encoding="UTF-8" standalone="no"?>
<svg
   xmlns:dc="http://purl.org/dc/elements/1.1/"
   xmlns:cc="http://creativecommons.org/ns#"
   xmlns:rdf="http://www.w3.org/1999/02/22-rdf-syntax-ns#"
   xmlns:svg="http://www.w3.org/2000/svg"
   xmlns="http://www.w3.org/2000/svg"
   xmlns:sodipodi="http://sodipodi.sourceforge.net/DTD/sodipodi-0.dtd"
   xmlns:inkscape="http://www.inkscape.org/namespaces/inkscape"
   viewBox="0 0 521.58532 268.96997"
   height="268.96997"
   width="521.58533"
   xml:space="preserve"
   id="svg29"
   version="1.1"
   sodipodi:docname="afvector.svg"
   inkscape:version="0.92.2 2405546, 2018-03-11"><sodipodi:namedview
     pagecolor="#ffffff"
     bordercolor="#666666"
     borderopacity="1"
     objecttolerance="10"
     gridtolerance="10"
     guidetolerance="10"
     inkscape:pageopacity="0"
     inkscape:pageshadow="2"
     inkscape:window-width="1902"
     inkscape:window-height="1032"
     id="namedview207"
     showgrid="false"
     inkscape:zoom="1.4945367"
     inkscape:cx="263.11068"
     inkscape:cy="133.85867"
     inkscape:window-x="8"
     inkscape:window-y="38"
     inkscape:window-maximized="0"
     inkscape:current-layer="svg29"
     fit-margin-top="0"
     fit-margin-left="0"
     fit-margin-right="0"
     fit-margin-bottom="0" /><metadata
     id="metadata35"><rdf:RDF><cc:Work
         rdf:about=""><dc:format>image/svg+xml</dc:format><dc:type
           rdf:resource="http://purl.org/dc/dcmitype/StillImage" /><dc:title></dc:title></cc:Work></rdf:RDF></metadata><defs
     id="defs33" /><g
     transform="matrix(1.3333333,0,0,-1.3333333,-133.74,414.79664)"
     id="g37"><g
       transform="translate(126.315,139.288)"
       id="g39"><path
         id="path41"
         style="fill:#231f20;fill-opacity:1;fill-rule:evenodd;stroke:none"
         d="m 0,0 h -11.256 l 5.541,17.029 h 0.116 z M 5.307,-16.271 H 14.93 L -0.816,27.585 h -9.215 L -26.01,-16.271 h 9.447 l 2.858,9.156 H 2.333 l 2.974,-9.156"
         inkscape:connector-curvature="0" /></g><path
       id="path43"
       style="fill:#231f20;fill-opacity:1;fill-rule:nonzero;stroke:none"
       d="m 141.656,123.017 h 8.3981 v 43.856 h -8.3981 z"
       inkscape:connector-curvature="0" /><g
       transform="translate(178.735,138.18)"
       id="g45"><path
         id="path47"
         style="fill:#231f20;fill-opacity:1;fill-rule:evenodd;stroke:none"
         d="m 0,0 c 0,-4.549 -2.508,-8.864 -7.348,-8.864 -5.249,0 -7.698,4.257 -7.698,8.747 0,5.016 2.682,8.982 7.464,8.982 C -2.624,8.865 0,4.724 0,0 Z m -23.153,-28.226 h 8.398 v 17.145 h 0.117 c 2.799,-3.674 5.657,-4.898 9.506,-4.898 8.631,0 13.88,7.406 13.88,15.746 0,8.339 -5.657,15.863 -13.997,15.863 -3.849,0 -7.465,-1.575 -9.389,-4.608 h -0.117 v 17.671 h -8.398 v -56.919"
         inkscape:connector-curvature="0" /></g><g
       transform="translate(198.021,158.125)"
       id="g49"><path
         id="path51"
         style="fill:#231f20;fill-opacity:1;fill-rule:evenodd;stroke:none"
         d="m 0,0 h 4.84 l 8.165,8.165 H 5.132 Z m -5.132,-48.172 h 8.806 l 16.213,43.04 H 10.673 L 4.316,-24.961 H 4.199 l -6.357,19.829 h -9.214 l 11.255,-29.976 -5.015,-13.064"
         inkscape:connector-curvature="0" /></g><g
       transform="translate(224.264,156.959)"
       id="g53"><path
         id="path55"
         style="fill:#231f20;fill-opacity:1;fill-rule:evenodd;stroke:none"
         d="M 0,0 7.173,3.149 C 10.148,0.7 12.597,-2.566 13.88,-5.132 h -0.117 c -1.983,1.4 -3.907,1.983 -6.473,1.983 -8.048,0 -14.114,-6.182 -14.114,-15.863 0,-9.564 6.299,-15.746 15.339,-15.746 11.255,0 15.338,8.34 15.338,18.137 0,9.506 -3.325,16.271 -10.148,22.686 l 6.823,3.033 -2.916,3.091 -7.29,-3.208 c -1.866,1.575 -3.499,2.8 -5.307,4.082 L -1.866,9.739 C 0.233,8.573 1.924,7.465 3.732,6.065 L -3.266,2.974 Z m 15.105,-19.012 c 0,-5.132 -2.566,-8.981 -6.532,-8.981 -4.083,0 -6.649,3.849 -6.649,8.981 0,5.249 2.566,9.098 6.649,9.098 3.966,0 6.532,-3.849 6.532,-9.098"
         inkscape:connector-curvature="0" /></g><g
       transform="translate(271.478,123.017)"
       id="g57"><path
         id="path59"
         style="fill:#231f20;fill-opacity:1;fill-rule:nonzero;stroke:none"
         d="M 0,0 H 8.048 V 29.976 H -0.35 V 12.947 c 0,-4.083 -2.099,-6.999 -5.482,-6.999 -2.624,0 -5.249,1.458 -5.249,5.774 v 18.254 h -8.398 V 9.623 c 0,-5.774 3.266,-10.44 10.498,-10.44 3.382,0 6.356,1.108 8.864,4.724 H 0 V 0"
         inkscape:connector-curvature="0" /></g><g
       transform="translate(286.111,123.017)"
       id="g61"><path
         id="path63"
         style="fill:#231f20;fill-opacity:1;fill-rule:nonzero;stroke:none"
         d="m 0,0 h 8.398 v 23.561 h 4.841 v 6.415 H 8.398 v 4.665 c 0,1.692 1.05,2.45 2.508,2.45 h 2.333 v 7.115 H 11.606 C 4.199,44.206 0,42.281 0,33.883 V 29.976 H -4.257 V 23.561 H 0 V 0"
         inkscape:connector-curvature="0" /></g><g
       transform="translate(301.594,109.954)"
       id="g65"><path
         id="path67"
         style="fill:#231f20;fill-opacity:1;fill-rule:nonzero;stroke:none"
         d="M 0,0 H 8.806 L 25.019,43.039 H 15.804 L 9.448,23.211 H 9.331 L 2.974,43.039 H -6.24 L 5.015,13.064 0,0"
         inkscape:connector-curvature="0" /></g><path
       id="path69"
       style="fill:#231f20;fill-opacity:1;fill-rule:nonzero;stroke:none"
       d="m 328.187,123.017 h 8.3979 v 43.856 h -8.3979 z"
       inkscape:connector-curvature="0" /><g
       transform="translate(358.968,123.017)"
       id="g71"><path
         id="path73"
         style="fill:#231f20;fill-opacity:1;fill-rule:nonzero;stroke:none"
         d="M 0,0 H 10.323 L -0.116,16.446 9.914,29.976 H 0.175 l -9.04,-13.122 h -0.116 v 27.002 h -8.398 V 0 h 8.398 v 14.696 h 0.116 L 0,0"
         inkscape:connector-curvature="0" /></g><g
       transform="translate(370.982,123.017)"
       id="g75"><path
         id="path77"
         style="fill:#231f20;fill-opacity:1;fill-rule:evenodd;stroke:none"
         d="M 0,0 H 8.3977 V 29.976 H 0 Z m -0.7,39.249 c 0,-2.333 2.1,-4.841 4.899,-4.841 2.683,0 4.899,2.391 4.899,4.957 0,2.683 -2.392,4.841 -4.899,4.841 -2.799,0 -4.899,-2.508 -4.899,-4.957"
         inkscape:connector-curvature="0" /></g><g
       transform="translate(403.512,123.017)"
       id="g79"><path
         id="path81"
         style="fill:#231f20;fill-opacity:1;fill-rule:nonzero;stroke:none"
         d="m 0,0 h 8.398 v 20.353 c 0,5.774 -3.266,10.439 -10.498,10.439 -3.382,0 -6.356,-1.108 -8.864,-4.724 h -0.117 v 3.908 h -8.048 V 0 h 8.398 v 17.029 c 0,4.082 2.1,6.998 5.482,6.998 C -2.624,24.027 0,22.569 0,18.254 V 0"
         inkscape:connector-curvature="0" /></g><g
       transform="translate(438.731,148.269)"
       id="g83"><path
         id="path85"
         style="fill:#231f20;fill-opacity:1;fill-rule:evenodd;stroke:none"
         d="m 0,0 h -0.117 c -1.458,3.207 -4.84,5.54 -9.389,5.54 -8.515,0 -14.347,-7.056 -14.347,-15.454 0,-9.74 6.474,-15.63 13.997,-15.63 4.257,0 7.756,1.4 9.681,5.54 l 0.117,-0.116 -0.234,-5.132 c -0.233,-6.007 -4.607,-7.232 -7.523,-7.232 -4.024,0 -5.482,1.517 -6.181,3.791 h -8.632 c 1.108,-6.299 5.949,-10.206 14.58,-10.206 9.564,0 16.096,5.074 16.096,14.113 V 4.724 H 0 Z m -0.117,-10.206 c 0,-7.523 -5.19,-8.573 -7.406,-8.573 -2.625,0 -7.582,1.633 -7.582,8.865 0,4.607 2.8,8.339 7.29,8.339 4.958,0 7.698,-3.149 7.698,-8.631"
         inkscape:connector-curvature="0" /></g><g
       transform="translate(451.15,123.017)"
       id="g87"><path
         id="path89"
         style="fill:#231f20;fill-opacity:1;fill-rule:evenodd;stroke:none"
         d="M 0,0 H 8.3979 V 29.976 H 0 Z m -0.7,39.249 c 0,-2.333 2.1,-4.841 4.899,-4.841 2.683,0 4.899,2.391 4.899,4.957 0,2.683 -2.391,4.841 -4.899,4.841 -2.799,0 -4.899,-2.508 -4.899,-4.957"
         inkscape:connector-curvature="0" /></g><g
       transform="translate(483.096,123.017)"
       id="g91"><path
         id="path93"
         style="fill:#231f20;fill-opacity:1;fill-rule:nonzero;stroke:none"
         d="m 0,0 h 8.398 v 20.353 c 0,5.774 -3.266,10.439 -10.498,10.439 -3.382,0 -6.356,-1.108 -8.864,-4.724 h -0.117 v 3.908 h -8.048 V 0 h 8.398 v 17.029 c 0,4.082 2.1,6.998 5.482,6.998 C -2.625,24.027 0,22.569 0,18.254 V 0"
         inkscape:connector-curvature="0" /></g><g
       transform="translate(402.408,198.273)"
       id="g95"><path
         id="path97"
         style="fill:#e31b22;fill-opacity:1;fill-rule:nonzero;stroke:none"
         d="m 0,0 20.435,2.872 c 3.191,0.448 6.142,-1.775 6.59,-4.967 l 1.645,-10.931 c 0.449,-3.191 -1.775,-6.142 -4.966,-6.591 l -12.816,-1.8 -5.016,-10.804 -1.391,9.903 -1.212,-0.17 c -3.192,-0.449 -6.142,1.775 -6.591,4.966 L -4.966,-6.591 C -5.415,-3.399 -3.191,-0.448 0,0"
         inkscape:connector-curvature="0" /></g><g
       transform="translate(374.365,197.87)"
       id="g99"><path
         id="path101"
         style="fill:#e31b22;fill-opacity:1;fill-rule:nonzero;stroke:none"
         d="m 0,0 11.89,1.46 c 1.857,0.228 3.547,-1.093 3.775,-2.95 l 1.005,-8.188 c 0.228,-1.857 -1.092,-3.548 -2.949,-3.776 l -7.457,-0.915 -3.021,-6.22 -0.707,5.762 -0.705,-0.086 c -1.857,-0.228 -3.547,1.092 -3.775,2.949 l -1.005,8.189 C -3.177,-1.918 -1.857,-0.228 0,0"
         inkscape:connector-curvature="0" /></g><g
       transform="translate(286.8,305.736)"
       id="g103"><path
         id="path105"
         style="fill:#e31b22;fill-opacity:1;fill-rule:nonzero;stroke:none"
         d="m 0,0 c 0,0 9.905,-4.32 19.547,-6.937 9.643,-2.617 15.204,-3.489 24.101,-6.23 8.897,-2.741 13.627,-6.977 14.107,-8.508 0.154,-0.492 -8.836,-26.174 -9.965,-29.618 -3.518,-10.737 -14.708,-28.571 -14.708,-28.571 -2.098,0.7 -34,12.592 -39.813,13.517 -5.814,0.925 -11.144,3.677 -11.144,3.677 0,0 11.565,37.021 14.946,49.816 C 0.452,-0.058 0,0 0,0"
         inkscape:connector-curvature="0" /></g><g
       transform="translate(327.982,220.819)"
       id="g107"><path
         id="path109"
         style="fill:#e31b22;fill-opacity:1;fill-rule:nonzero;stroke:none"
         d="m 0,0 34.612,-11.246 c 2.828,-0.919 4.376,-3.956 3.457,-6.784 l -8.077,-24.859 c -0.919,-2.828 -3.956,-4.376 -6.784,-3.457 l -27.861,9.052 -8.529,-6.93 2.851,8.775 -1.073,0.349 c -2.828,0.919 -4.376,3.956 -3.457,6.784 l 8.077,24.859 C -5.865,-0.629 -2.828,0.919 0,0"
         inkscape:connector-curvature="0" /></g><g
       transform="translate(355.712,272.161)"
       id="g111"><path
         id="path113"
         style="fill:#e31b22;fill-opacity:1;fill-rule:nonzero;stroke:none"
         d="m 0,0 20.435,2.872 c 3.191,0.448 6.142,-1.775 6.59,-4.967 l 4.196,-31.253 c 0.448,-3.192 -1.775,-6.142 -4.966,-6.591 L 13.439,-41.74 8.423,-52.543 7.031,-42.64 5.82,-42.811 c -3.192,-0.448 -6.142,1.775 -6.591,4.967 L -4.966,-6.591 C -5.415,-3.399 -3.191,-0.449 0,0"
         inkscape:connector-curvature="0" /></g><g
       transform="translate(379.614,229.068)"
       id="g115"><path
         id="path117"
         style="fill:#e31b22;fill-opacity:1;fill-rule:nonzero;stroke:none"
         d="m 0,0 15.863,-5.462 c 2.478,-0.853 3.795,-3.553 2.942,-6.03 l -3.762,-10.926 c -0.853,-2.477 -3.553,-3.794 -6.031,-2.941 l -9.948,3.425 -7.621,-5.974 2.647,7.687 -0.941,0.324 c -2.478,0.853 -3.794,3.553 -2.941,6.03 L -6.03,-2.941 C -5.177,-0.464 -2.477,0.853 0,0"
         inkscape:connector-curvature="0" /></g><g
       transform="translate(415.09,242.601)"
       id="g119"><path
         id="path121"
         style="fill:#e31b22;fill-opacity:1;fill-rule:nonzero;stroke:none"
         d="m 0,0 20.834,-6.37 c 3.254,-0.995 5.085,-4.439 4.09,-7.693 l -4.387,-14.349 c -0.994,-3.253 -4.438,-5.085 -7.692,-4.09 l -13.066,3.995 -9.62,-8.099 3.087,10.096 -1.236,0.378 c -3.253,0.995 -5.085,4.439 -4.09,7.693 L -7.693,-4.09 C -6.698,-0.836 -3.254,0.995 0,0"
         inkscape:connector-curvature="0" /></g><g
       transform="translate(177.866,295.431)"
       id="g123"><path
         id="path125"
         style="fill:#e31b22;fill-opacity:1;fill-rule:nonzero;stroke:none"
         d="m 0,0 c 0,0 -1.659,-15.184 -0.751,-19.813 0.909,-4.629 5,-33.643 3.196,-43.364 -0.201,-1.08 12.892,-1.112 15.435,0.718 2.542,1.831 3.241,4.194 9.956,6.023 6.716,1.83 12.565,0.869 17.462,-1.787 4.897,-2.657 22.867,-7.777 29.083,-7.23 6.217,0.547 15.366,-4.045 17.594,-5.47 2.228,-1.426 6.869,59.923 7.229,64.049 0.36,4.127 -63.942,20.734 -70.268,20.847 -6.325,0.113 -14.316,1.405 -18.621,1.63 C 6.01,15.829 2.101,15.379 2.101,15.379 L 0,0"
         inkscape:connector-curvature="0" /></g><g
       transform="translate(119.403,264.418)"
       id="g127"><path
         id="path129"
         style="fill:#e31b22;fill-opacity:1;fill-rule:nonzero;stroke:none"
         d="m 0,0 c 0,0 -1.819,-15.752 -0.747,-20.562 1.072,-4.81 5.948,-34.951 3.93,-45.03 -0.224,-1.12 14.833,-1.23 17.746,0.655 2.913,1.885 57.848,-3.972 64.994,-3.441 7.145,0.531 17.695,-4.289 20.265,-5.782 2.57,-1.493 7.546,62.16 7.936,66.441 0.39,4.281 -73.655,21.898 -80.93,22.053 C 25.919,14.488 16.722,15.876 11.77,16.136 6.818,16.395 2.326,15.951 2.326,15.951 L 0,0"
         inkscape:connector-curvature="0" /></g><g
       transform="translate(299.61,260.131)"
       id="g131"><path
         id="path133"
         style="fill:#e31b22;fill-opacity:1;fill-rule:nonzero;stroke:none"
         d="m 0,0 c 0,0 10.578,-1.859 20.614,-2.789 10.037,-0.931 15.721,-1.115 25.035,-2.154 9.314,-1.039 9.19,-0.509 10.95,-0.497 1.761,0.013 2.376,-2.503 2.376,-2.503 0,0 0.226,-0.724 -1.645,-7.4 -1.869,-6.677 -5.265,-24.102 -5.433,-27.072 -0.167,-2.97 0.553,-6.901 -5.3,-6.183 -5.853,0.718 -10.539,1.344 -17.868,1.672 -7.328,0.328 -19.004,1.938 -24.949,2.137 -5.943,0.2 -11.706,1.437 -11.706,1.437 0,0 5.445,21.099 6.713,28.359 C 0.056,-7.734 0,0 0,0"
         inkscape:connector-curvature="0" /></g></g></svg>